…
0.634

0.751

0.774

0.575

The tidyr package can be used to gather these existing columns into a new variable. In this case, we need to create a new column called pressure and then gather the existing values in the these variable columns into the new pressure variable

ctd.long = ctd.wide %>%  
      gather (key = "depth", value = "fluorescence ",  2:12)
ctd.long

# A tibble: 55 x 3
   station depth `fluorescence `
   <chr>   <chr>           <dbl>
 1 st1     10              0.599
 2 st2     10              0.631
 3 st3     10              0.98 
 4 st4     10             NA    
 5 st5     10             NA    
 6 st1     20              0.678
 7 st2     20              0.733
 8 st3     20              0.934
 9 st4     20              0.623
10 st5     20              0.350
# ... with 45 more rows
…
The spread() function takes two arguments: the column that contains variable names, known as the key and
a column that contains values from multiple variables – the value.

separate()

Another common in tidyr package is a separate ()function, which split the variable into two or more variables. For example, the dataset below has a date column that actually contains the date and time variables separated by a space.

ctd

# A tibble: 115 x 12
   station time                  lon   lat pressure temperature salinity oxygen
   <chr>   <dttm>              <dbl> <dbl>    <dbl>       <dbl>    <dbl>  <dbl>
 1 st1     2004-08-18 15:27:46  40.6 -10.5        5        25.2     33.9   3.93
 2 st1     2004-08-18 15:27:46  40.6 -10.5       10        25.1     34.9   4.49
 3 st1     2004-08-18 15:27:46  40.6 -10.5       15        25.1     34.9   4.50
 4 st1     2004-08-18 15:27:46  40.6 -10.5       20        25.0     34.9   4.51
 5 st1     2004-08-18 15:27:46  40.6 -10.5       25        24.9     34.9   4.51
 6 st1     2004-08-18 15:27:46  40.6 -10.5       30        24.9     34.9   4.50
 7 st1     2004-08-18 15:27:46  40.6 -10.5       35        24.9     34.9   4.49
 8 st1     2004-08-18 15:27:46  40.6 -10.5       40        24.9     34.9   4.48
 9 st1     2004-08-18 15:27:46  40.6 -10.5       45        24.8     34.9   4.46
10 st1     2004-08-18 15:27:46  40.6 -10.5       50        24.6     34.9   4.44
# ... with 105 more rows, and 4 more variables: fluorescence <dbl>, spar <dbl>,
#   par <dbl>, density <dbl>

We use the separate() function splits the datetime column into two variables: date and time

ctd %>% 
  separate(col = time, into = c("Date", "Time"), sep = " ")

# A tibble: 115 x 13
   station Date       Time       lon   lat pressure temperature salinity oxygen
   <chr>   <chr>      <chr>    <dbl> <dbl>    <dbl>       <dbl>    <dbl>  <dbl>
 1 st1     2004-08-18 15:27:46  40.6 -10.5        5        25.2     33.9   3.93
 2 st1     2004-08-18 15:27:46  40.6 -10.5       10        25.1     34.9   4.49
 3 st1     2004-08-18 15:27:46  40.6 -10.5       15        25.1     34.9   4.50
 4 st1     2004-08-18 15:27:46  40.6 -10.5       20        25.0     34.9   4.51
 5 st1     2004-08-18 15:27:46  40.6 -10.5       25        24.9     34.9   4.51
 6 st1     2004-08-18 15:27:46  40.6 -10.5       30        24.9     34.9   4.50
 7 st1     2004-08-18 15:27:46  40.6 -10.5       35        24.9     34.9   4.49
 8 st1     2004-08-18 15:27:46  40.6 -10.5       40        24.9     34.9   4.48
 9 st1     2004-08-18 15:27:46  40.6 -10.5       45        24.8     34.9   4.46
10 st1     2004-08-18 15:27:46  40.6 -10.5       50        24.6     34.9   4.44
# ... with 105 more rows, and 4 more variables: fluorescence <dbl>, spar <dbl>,
#   par <dbl>, density <dbl>

The separate() function accepts arguments for the name of the variable to separate. You also need to specify the names of the variable to separate into, and an optional separator.

##unite ()
The unite()function is the exact opposite of separate() in that it combines multiple columns into a single column. While not used nearly as often as separate() , there may be times when you need the functionality provided by unite(). For example, we can combine the variable Date and Time to form siku.muda, and separate them with :-: symbol between the two variables.

ctd.un %>% unite(col = "siku_muda", c("Date", "Time"), sep = ":-:")

# A tibble: 115 x 12
   station siku_muda              lon   lat pressure temperature salinity oxygen
   <chr>   <chr>                <dbl> <dbl>    <dbl>       <dbl>    <dbl>  <dbl>
 1 st1     2004-08-18:-:15:27:~  40.6 -10.5        5        25.2     33.9   3.93
 2 st1     2004-08-18:-:15:27:~  40.6 -10.5       10        25.1     34.9   4.49
 3 st1     2004-08-18:-:15:27:~  40.6 -10.5       15        25.1     34.9   4.50
 4 st1     2004-08-18:-:15:27:~  40.6 -10.5       20        25.0     34.9   4.51
 5 st1     2004-08-18:-:15:27:~  40.6 -10.5       25        24.9     34.9   4.51
 6 st1     2004-08-18:-:15:27:~  40.6 -10.5       30        24.9     34.9   4.50
 7 st1     2004-08-18:-:15:27:~  40.6 -10.5       35        24.9     34.9   4.49
 8 st1     2004-08-18:-:15:27:~  40.6 -10.5       40        24.9     34.9   4.48
 9 st1     2004-08-18:-:15:27:~  40.6 -10.5       45        24.8     34.9   4.46
10 st1     2004-08-18:-:15:27:~  40.6 -10.5       50        24.6     34.9   4.44
# ... with 105 more rows, and 4 more variables: fluorescence <dbl>, spar <dbl>,
#   par <dbl>, density <dbl>
…
