…
Then group the word and compute the frequency of each word

doc.group = doc2 %>% 
  group_by(text) %>% 
  count() %>% 
  arrange(desc(n)) %>% 
  ungroup()

doc.group

# A tibble: 3,558 x 2
   text              n
   <chr>         <int>
 1 tanzania        254
 2 land            228
 3 environmental   176
 4 water           171
 5 forest          130
 6 management      125
 7 national        113
 8 policy          109
 9 areas           107
10 environment     103
# ... with 3,548 more rows
…
