…
Failure of xtractomatic package to provide a tidy format of the gridded data is the reason to write an update post that compliment my previous post. In this post, I will explain an easy way of getting satellite data from ERDAPP server and dowload in tabular form, which is tidy to make use of the power of tidyverse bundles of packages (Wickham and Wickham 2017). We will use rerddap package (Chamberlain 2019) instead of xtractomatic to accomplish the task. We need to load the package into our session. If you do not have the package in your machine, you can simply install directly from CRAN.

install.packages("rerddap")

Then load erddap and tidyverse packages that we are going to use in this post

require(rerddap)
require(tidyverse)

The ERDDAP server has thousands of gridded and table dataset, and can be overwheliming to look at these dataset manually. The rerddap package has a ed_search function that allows us to query the server with specific type of keywords. For instance I am interested with all one day composite chlorophyll a dataset with global coverage. I can simply parse the argument ed_search(query = "MODIS Chlorophyll-a Global 1 Day") and get the list of all dataset that meet those criteria.

whichchl = ed_search(query = "MODIS Chlorophyll-a Global 1 Day")
whichchl

# A tibble: 21 x 2
   title                                                   dataset_id           
   <chr>                                                   <chr>                
 1 Chlorophyll-a, Aqua MODIS, NPP, L3SMI, Global, 4km, Sc~ erdMH1chla1day       
 2 Chlorophyll-a, Aqua MODIS, NPP, L3SMI, Global, 4km, Sc~ erdMH1chla8day       
 3 VIIRSN, Suomi-NPP, Level-3 SMI, NASA, Global, 4km, Chl~ erdVH2018chla8day    
 4 VIIRSN, Suomi-NPP, Level-3 SMI, NASA, Global, 4km, Chl~ erdVH2018chla1day    
 5 Primary Productivity, Aqua MODIS, NPP, Global, 2003-pr~ erdMH1pp1day         
 6 Primary Productivity, Aqua MODIS, NPP, Global, 2003-pr~ erdMH1pp3day         
 7 Primary Productivity, Aqua MODIS, NPP, Global, 2003-pr~ erdMH1pp8day         
 8 Primary Productivity, Aqua MODIS, NPP, Global, 2003-pr~ erdMH1ppmday         
 9 ESA CCI Ocean Colour Product (CCI ALL-v4.2-8DAY), 0.04~ pmlEsaCCI42OceanColo~
10 ESA CCI Ocean Colour Product (CCI ALL-v3.1-DAILY), 0.0~ pmlEsaCCI31OceanColo~
# ... with 11 more rows
…
