…
Just as the data that is provided by surveys and questionnaires can take various forms, there are numerous ways to display survey data. In the following, we will have a look at some of the most common or useful ways in which survey and questionnaire data can be visualized. However, before we can begin, we need to set up our R session as shown below.

Line graphs for Likert-scaled data

A special case of line graphs is used when dealing with Likert-scaled variables (we will talk about Likert scales in more detail below). In such cases, the line graph displays the density of cumulative frequencies of responses. The difference between the cumulative frequencies of responses displays differences in preferences. We will only focus on how to create such graphs using the ggplot environment here as it has an in-build function (ecdf) which is designed to handle such data.

The questionnaire dataset contains Likert-scaled variables about their competency in using computer. The response to the Likert item is numeric so that very incompetent would get the lowest (1) and high comppetent the highest numeric value (5).

pc = qns %>% 
  # glimpse() %>% 
  select(degree = 9, competance = 10)

pc

# A tibble: 96 x 2
   degree      competance
   <chr>            <dbl>
 1 BSc-Biology          5
 2 BSc-Biology          5
 3 BSc-Biology          2
 4 BSc-Biology          3
 5 BSc-Biology          2
 6 BSc-Biology          4
 7 BSc-Biology          4
 8 BSc-Biology          4
 9 BSc-Biology          4
10 BSc-Biology          2
# ... with 86 more rows
…
