…
tmax %>% 
  raster::plot()

<img src="{{< blogdown/postref >}}index.en_files/figure-html/unnamed-chunk-8-1.png" width="672" />

Though the base plot is sharp and quick to draw this large dataset, but we are satisfied with default plotting settings. We can customize the plot and make them appeal to the eye, but we switch to ggplot2 package (Wickham 2016), which does have tons of tools for customization of publication quality plots. Unfortunate, ggplot2 require tidy data in data frame format instead of the raster. Therefore, the first thing is to convert raster to a data frame, the chunk bleow highlihgth.

tmax.tb = tmax %>%
  raster::as.data.frame(xy = TRUE) %>%
  pivot_longer(cols = 3:14, values_to = "tmax", names_to = "month")

tmax.tb

# A tibble: 23,328,000 x 4
       x     y month   tmax
   <dbl> <dbl> <chr>  <dbl>
 1 -180.  89.9 tmax1     NA
 2 -180.  89.9 tmax2     NA
 3 -180.  89.9 tmax3     NA
 4 -180.  89.9 tmax4     NA
 5 -180.  89.9 tmax5     NA
 6 -180.  89.9 tmax6     NA
 7 -180.  89.9 tmax7     NA
 8 -180.  89.9 tmax8     NA
 9 -180.  89.9 tmax9     NA
10 -180.  89.9 tmax10    NA
# ... with 23,327,990 more rows
…
